
{
  "header": {
    "reportVersion": 1,
    "event": "Allocation failed - JavaScript heap out of memory",
    "trigger": "FatalError",
    "filename": "report.20191226.111242.15612.0.001.json",
    "dumpEventTime": "2019-12-26T11:12:42Z",
    "dumpEventTimeStamp": "1577355162674",
    "processId": 15612,
    "cwd": "/var/www/ionic/chuck-norris",
    "commandLine": [
      "/usr/local/bin/node",
      "/var/www/ionic/chuck-norris/node_modules/jest-worker/build/workers/processChild.js"
    ],
    "nodejsVersion": "v12.14.0",
    "glibcVersionRuntime": "2.28",
    "glibcVersionCompiler": "2.17",
    "wordSize": 64,
    "arch": "x64",
    "platform": "linux",
    "componentVersions": {
      "node": "12.14.0",
      "v8": "7.7.299.13-node.16",
      "uv": "1.33.1",
      "zlib": "1.2.11",
      "brotli": "1.0.7",
      "ares": "1.15.0",
      "modules": "72",
      "nghttp2": "1.39.2",
      "napi": "5",
      "llhttp": "1.1.4",
      "http_parser": "2.8.0",
      "openssl": "1.1.1d",
      "cldr": "35.1",
      "icu": "64.2",
      "tz": "2019c",
      "unicode": "12.1"
    },
    "release": {
      "name": "node",
      "lts": "Erbium",
      "headersUrl": "https://nodejs.org/download/release/v12.14.0/node-v12.14.0-headers.tar.gz",
      "sourceUrl": "https://nodejs.org/download/release/v12.14.0/node-v12.14.0.tar.gz"
    },
    "osName": "Linux",
    "osRelease": "4.18.0-25-generic",
    "osVersion": "#26-Ubuntu SMP Mon Jun 24 09:32:08 UTC 2019",
    "osMachine": "x86_64",
    "cpus": [
      {
        "model": "Intel(R) Core(TM) i5-8500 CPU @ 3.00GHz",
        "speed": 3900,
        "user": 5255700,
        "nice": 11700,
        "sys": 1130500,
        "idle": 68403400,
        "irq": 0
      },
      {
        "model": "Intel(R) Core(TM) i5-8500 CPU @ 3.00GHz",
        "speed": 3900,
        "user": 5432300,
        "nice": 15800,
        "sys": 1123600,
        "idle": 68080100,
        "irq": 0
      },
      {
        "model": "Intel(R) Core(TM) i5-8500 CPU @ 3.00GHz",
        "speed": 3900,
        "user": 5456000,
        "nice": 9500,
        "sys": 1152700,
        "idle": 68120400,
        "irq": 0
      },
      {
        "model": "Intel(R) Core(TM) i5-8500 CPU @ 3.00GHz",
        "speed": 3900,
        "user": 4821100,
        "nice": 4100,
        "sys": 1733200,
        "idle": 67668600,
        "irq": 0
      },
      {
        "model": "Intel(R) Core(TM) i5-8500 CPU @ 3.00GHz",
        "speed": 3900,
        "user": 5085800,
        "nice": 20500,
        "sys": 1123400,
        "idle": 68552900,
        "irq": 0
      },
      {
        "model": "Intel(R) Core(TM) i5-8500 CPU @ 3.00GHz",
        "speed": 3900,
        "user": 5299600,
        "nice": 2900,
        "sys": 1136900,
        "idle": 68363900,
        "irq": 0
      }
    ],
    "networkInterfaces": [
      {
        "name": "lo",
        "internal": true,
        "mac": "00:00:00:00:00:00",
        "address": "127.0.0.1",
        "netmask": "255.0.0.0",
        "family": "IPv4"
      },
      {
        "name": "eno1",
        "internal": false,
        "mac": "4c:52:62:21:64:9c",
        "address": "192.168.10.11",
        "netmask": "255.255.255.0",
        "family": "IPv4"
      },
      {
        "name": "br-622b387492cb",
        "internal": false,
        "mac": "02:42:e1:75:12:ae",
        "address": "172.22.0.1",
        "netmask": "255.255.0.0",
        "family": "IPv4"
      },
      {
        "name": "lo",
        "internal": true,
        "mac": "00:00:00:00:00:00",
        "address": "::1",
        "netmask": "ffff:ffff:ffff:ffff:ffff:ffff:ffff:ffff",
        "family": "IPv6",
        "scopeid": 0
      },
      {
        "name": "eno1",
        "internal": false,
        "mac": "4c:52:62:21:64:9c",
        "address": "fe80::da7d:dba:dd8e:eedf",
        "netmask": "ffff:ffff:ffff:ffff::",
        "family": "IPv6",
        "scopeid": 2
      },
      {
        "name": "br-622b387492cb",
        "internal": false,
        "mac": "02:42:e1:75:12:ae",
        "address": "fe80::42:e1ff:fe75:12ae",
        "netmask": "ffff:ffff:ffff:ffff::",
        "family": "IPv6",
        "scopeid": 4
      },
      {
        "name": "veth231ac6c",
        "internal": false,
        "mac": "2e:51:11:c4:c9:00",
        "address": "fe80::2c51:11ff:fec4:c900",
        "netmask": "ffff:ffff:ffff:ffff::",
        "family": "IPv6",
        "scopeid": 6
      },
      {
        "name": "vethfd49193",
        "internal": false,
        "mac": "02:62:a7:09:9d:7c",
        "address": "fe80::62:a7ff:fe09:9d7c",
        "netmask": "ffff:ffff:ffff:ffff::",
        "family": "IPv6",
        "scopeid": 12
      },
      {
        "name": "veth4cfba1a",
        "internal": false,
        "mac": "fe:c7:94:3d:d7:40",
        "address": "fe80::fcc7:94ff:fe3d:d740",
        "netmask": "ffff:ffff:ffff:ffff::",
        "family": "IPv6",
        "scopeid": 14
      }
    ],
    "host": "xkr225"
  },
  "javascriptStack": {
    "message": "No stack.",
    "stack": [
      "Unavailable."
    ]
  },
  "nativeStack": [
    {
      "pc": "0x0000000000b04935",
      "symbol": "report::TriggerNodeReport(v8::Isolate*, node::Environment*, char const*, char const*, std::string const&, v8::Local<v8::String>) [/usr/local/bin/node]"
    },
    {
      "pc": "0x00000000009db9e3",
      "symbol": "node::OnFatalError(char const*, char const*) [/usr/local/bin/node]"
    },
    {
      "pc": "0x0000000000b39f1e",
      "symbol": "v8::Utils::ReportOOMFailure(v8::internal::Isolate*, char const*, bool) [/usr/local/bin/node]"
    },
    {
      "pc": "0x0000000000b3a299",
      "symbol": "v8::internal::V8::FatalProcessOutOfMemory(v8::internal::Isolate*, char const*, bool) [/usr/local/bin/node]"
    },
    {
      "pc": "0x0000000000ce5635",
      "symbol": " [/usr/local/bin/node]"
    },
    {
      "pc": "0x0000000000ce5cc6",
      "symbol": "v8::internal::Heap::RecomputeLimits(v8::internal::GarbageCollector) [/usr/local/bin/node]"
    },
    {
      "pc": "0x0000000000cf1b5a",
      "symbol": "v8::internal::Heap::PerformGarbageCollection(v8::internal::GarbageCollector, v8::GCCallbackFlags) [/usr/local/bin/node]"
    },
    {
      "pc": "0x0000000000cf2a65",
      "symbol": "v8::internal::Heap::CollectGarbage(v8::internal::AllocationSpace, v8::internal::GarbageCollectionReason, v8::GCCallbackFlags) [/usr/local/bin/node]"
    },
    {
      "pc": "0x0000000000cf5478",
      "symbol": "v8::internal::Heap::AllocateRawWithRetryOrFail(int, v8::internal::AllocationType, v8::internal::AllocationAlignment) [/usr/local/bin/node]"
    },
    {
      "pc": "0x0000000000cbbda7",
      "symbol": "v8::internal::Factory::NewFillerObject(int, bool, v8::internal::AllocationType) [/usr/local/bin/node]"
    },
    {
      "pc": "0x0000000000ff1e0b",
      "symbol": "v8::internal::Runtime_AllocateInYoungGeneration(int, unsigned long*, v8::internal::Isolate*) [/usr/local/bin/node]"
    },
    {
      "pc": "0x0000000001374fd9",
      "symbol": " [/usr/local/bin/node]"
    }
  ],
  "javascriptHeap": {
    "totalMemory": 2151399424,
    "totalCommittedMemory": 2149925672,
    "usedMemory": 2135003520,
    "availableMemory": 48690760,
    "memoryLimit": 2197815296,
    "heapSpaces": {
      "read_only_space": {
        "memorySize": 262144,
        "committedMemory": 32568,
        "capacity": 261872,
        "used": 32296,
        "available": 229576
      },
      "new_space": {
        "memorySize": 2097152,
        "committedMemory": 1213464,
        "capacity": 1047488,
        "used": 164024,
        "available": 883464
      },
      "old_space": {
        "memorySize": 2069475328,
        "committedMemory": 2069284632,
        "capacity": 2056038304,
        "used": 2055923944,
        "available": 114360
      },
      "code_space": {
        "memorySize": 1474560,
        "committedMemory": 1359232,
        "capacity": 1308608,
        "used": 1308608,
        "available": 0
      },
      "map_space": {
        "memorySize": 1314816,
        "committedMemory": 1260352,
        "capacity": 934560,
        "used": 934560,
        "available": 0
      },
      "large_object_space": {
        "memorySize": 76726272,
        "committedMemory": 76726272,
        "capacity": 76636536,
        "used": 76636536,
        "available": 0
      },
      "code_large_object_space": {
        "memorySize": 49152,
        "committedMemory": 49152,
        "capacity": 3552,
        "used": 3552,
        "available": 0
      },
      "new_large_object_space": {
        "memorySize": 0,
        "committedMemory": 0,
        "capacity": 1047488,
        "used": 0,
        "available": 1047488
      }
    }
  },
  "resourceUsage": {
    "userCpuSeconds": 80.5159,
    "kernelCpuSeconds": 1.9224,
    "cpuConsumptionPercent": 216.943,
    "maxRss": 2263744512,
    "pageFaults": {
      "IORequired": 18,
      "IONotRequired": 897353
    },
    "fsActivity": {
      "reads": 2256,
      "writes": 2080
    }
  },
  "uvthreadResourceUsage": {
    "userCpuSeconds": 33.7873,
    "kernelCpuSeconds": 0.941638,
    "cpuConsumptionPercent": 91.3919,
    "fsActivity": {
      "reads": 2256,
      "writes": 1024
    }
  },
  "libuv": [
  ],
  "environmentVariables": {
    "CLUTTER_IM_MODULE": "xim",
    "LS_COLORS": "rs=0:di=01;34:ln=01;36:mh=00:pi=40;33:so=01;35:do=01;35:bd=40;33;01:cd=40;33;01:or=40;31;01:mi=00:su=37;41:sg=30;43:ca=30;41:tw=30;42:ow=34;42:st=37;44:ex=01;32:*.tar=01;31:*.tgz=01;31:*.arc=01;31:*.arj=01;31:*.taz=01;31:*.lha=01;31:*.lz4=01;31:*.lzh=01;31:*.lzma=01;31:*.tlz=01;31:*.txz=01;31:*.tzo=01;31:*.t7z=01;31:*.zip=01;31:*.z=01;31:*.Z=01;31:*.dz=01;31:*.gz=01;31:*.lrz=01;31:*.lz=01;31:*.lzo=01;31:*.xz=01;31:*.zst=01;31:*.tzst=01;31:*.bz2=01;31:*.bz=01;31:*.tbz=01;31:*.tbz2=01;31:*.tz=01;31:*.deb=01;31:*.rpm=01;31:*.jar=01;31:*.war=01;31:*.ear=01;31:*.sar=01;31:*.rar=01;31:*.alz=01;31:*.ace=01;31:*.zoo=01;31:*.cpio=01;31:*.7z=01;31:*.rz=01;31:*.cab=01;31:*.wim=01;31:*.swm=01;31:*.dwm=01;31:*.esd=01;31:*.jpg=01;35:*.jpeg=01;35:*.mjpg=01;35:*.mjpeg=01;35:*.gif=01;35:*.bmp=01;35:*.pbm=01;35:*.pgm=01;35:*.ppm=01;35:*.tga=01;35:*.xbm=01;35:*.xpm=01;35:*.tif=01;35:*.tiff=01;35:*.png=01;35:*.svg=01;35:*.svgz=01;35:*.mng=01;35:*.pcx=01;35:*.mov=01;35:*.mpg=01;35:*.mpeg=01;35:*.m2v=01;35:*.mkv=01;35:*.webm=01;35:*.ogm=01;35:*.mp4=01;35:*.m4v=01;35:*.mp4v=01;35:*.vob=01;35:*.qt=01;35:*.nuv=01;35:*.wmv=01;35:*.asf=01;35:*.rm=01;35:*.rmvb=01;35:*.flc=01;35:*.avi=01;35:*.fli=01;35:*.flv=01;35:*.gl=01;35:*.dl=01;35:*.xcf=01;35:*.xwd=01;35:*.yuv=01;35:*.cgm=01;35:*.emf=01;35:*.ogv=01;35:*.ogx=01;35:*.aac=00;36:*.au=00;36:*.flac=00;36:*.m4a=00;36:*.mid=00;36:*.midi=00;36:*.mka=00;36:*.mp3=00;36:*.mpc=00;36:*.ogg=00;36:*.ra=00;36:*.wav=00;36:*.oga=00;36:*.opus=00;36:*.spx=00;36:*.xspf=00;36:",
    "TERMINAL_EMULATOR": "JetBrains-JediTerm",
    "LESSCLOSE": "/usr/bin/lesspipe %s %s",
    "ANDROID_HOME": "/home/ngmichel/Android/Sdk",
    "XDG_MENU_PREFIX": "gnome-",
    "SNAP_USER_DATA": "/home/ngmichel/snap/webstorm/126",
    "LANG": "fr_FR.UTF-8",
    "DISPLAY": ":1",
    "OLDPWD": "/snap/webstorm/126/bin",
    "GNOME_SHELL_SESSION_MODE": "ubuntu",
    "SNAP_REVISION": "126",
    "SNAP_ARCH": "amd64",
    "SNAP_INSTANCE_KEY": "",
    "USERNAME": "ngmichel",
    "XDG_VTNR": "2",
    "GIO_LAUNCHED_DESKTOP_FILE_PID": "30278",
    "SSH_AUTH_SOCK": "/run/user/1000/keyring/ssh",
    "MANDATORY_PATH": "/usr/share/gconf/ubuntu.mandatory.path",
    "XDG_SESSION_ID": "3",
    "SNAP_USER_COMMON": "/home/ngmichel/snap/webstorm/common",
    "USER": "ngmichel",
    "DESKTOP_SESSION": "ubuntu",
    "QT4_IM_MODULE": "xim",
    "DEFAULTS_PATH": "/usr/share/gconf/ubuntu.default.path",
    "PWD": "/var/www/ionic/chuck-norris",
    "HOME": "/home/ngmichel",
    "SNAP": "/snap/webstorm/126",
    "SSH_AGENT_PID": "5314",
    "QT_ACCESSIBILITY": "1",
    "SNAP_COMMON": "/var/snap/webstorm/common",
    "XDG_SESSION_TYPE": "x11",
    "SNAP_NAME": "webstorm",
    "XDG_DATA_DIRS": "/usr/share/ubuntu:/usr/local/share:/usr/share:/var/lib/snapd/desktop",
    "SNAP_INSTANCE_NAME": "webstorm",
    "SNAP_DATA": "/var/snap/webstorm/126",
    "XDG_SESSION_DESKTOP": "ubuntu",
    "GJS_DEBUG_OUTPUT": "stderr",
    "GTK_MODULES": "",
    "SNAP_COOKIE": "jh0GQlss8YnHkQ1qsKb7RcF6YD9hsrWMTrLnjnW9l5BH",
    "WINDOWPATH": "2",
    "SHELL": "/bin/bash",
    "TERM": "xterm-256color",
    "QT_IM_MODULE": "ibus",
    "XMODIFIERS": "@im=ibus",
    "IM_CONFIG_PHASE": "2",
    "XDG_CURRENT_DESKTOP": "ubuntu:GNOME",
    "GPG_AGENT_INFO": "/run/user/1000/gnupg/S.gpg-agent:0:1",
    "BAMF_DESKTOP_FILE_HINT": "/var/lib/snapd/desktop/applications/webstorm_webstorm.desktop",
    "SNAP_REEXEC": "",
    "GIO_LAUNCHED_DESKTOP_FILE": "/var/lib/snapd/desktop/applications/webstorm_webstorm.desktop",
    "XDG_SEAT": "seat0",
    "SHLVL": "1",
    "GDK_BACKEND": "x11",
    "GDMSESSION": "ubuntu",
    "GNOME_DESKTOP_SESSION_ID": "this-is-deprecated",
    "LOGNAME": "ngmichel",
    "DBUS_SESSION_BUS_ADDRESS": "unix:path=/run/user/1000/bus",
    "XDG_RUNTIME_DIR": "/run/user/1000/snap.webstorm",
    "XAUTHORITY": "/run/user/1000/gdm/Xauthority",
    "SNAP_CONTEXT": "jh0GQlss8YnHkQ1qsKb7RcF6YD9hsrWMTrLnjnW9l5BH",
    "XDG_CONFIG_DIRS": "/etc/xdg/xdg-ubuntu:/etc/xdg",
    "PATH": "/var/www/ionic/chuck-norris/node_modules/.bin:/var/www/ionic/chuck-norris/node_modules/.bin:/usr/local/sbin:/usr/local/bin:/usr/sbin:/usr/bin:/sbin:/bin:/usr/games:/usr/local/games:/snap/bin:/home/ngmichel/Android/Sdk/tools:/home/ngmichel/Android/Sdk/platform-tools",
    "SNAP_VERSION": "2019.3.1",
    "GJS_DEBUG_TOPICS": "JS ERROR;JS LOG",
    "SNAP_LIBRARY_PATH": "/var/lib/snapd/lib/gl:/var/lib/snapd/lib/gl32:/var/lib/snapd/void",
    "SESSION_MANAGER": "local/xkr225:@/tmp/.ICE-unix/5186,unix/xkr225:/tmp/.ICE-unix/5186",
    "LESSOPEN": "| /usr/bin/lesspipe %s",
    "GTK_IM_MODULE": "ibus",
    "_": "/usr/local/bin/ionic",
    "IONIC_CLI_BIN": "/usr/local/lib/node_modules/ionic/bin/ionic",
    "IONIC_CLI_LIB": "/usr/local/lib/node_modules/ionic",
    "IONIC_CLI_LOCAL_ERROR": "LOCAL_CLI_NOT_FOUND",
    "FORCE_COLOR": "1",
    "WEBPACK_DEV_SERVER": "true",
    "JEST_WORKER_ID": "3"
  },
  "userLimits": {
    "core_file_size_blocks": {
      "soft": 0,
      "hard": "unlimited"
    },
    "data_seg_size_kbytes": {
      "soft": "unlimited",
      "hard": "unlimited"
    },
    "file_size_blocks": {
      "soft": "unlimited",
      "hard": "unlimited"
    },
    "max_locked_memory_bytes": {
      "soft": 16777216,
      "hard": 16777216
    },
    "max_memory_size_kbytes": {
      "soft": "unlimited",
      "hard": "unlimited"
    },
    "open_files": {
      "soft": 1048576,
      "hard": 1048576
    },
    "stack_size_bytes": {
      "soft": 8388608,
      "hard": "unlimited"
    },
    "cpu_time_seconds": {
      "soft": "unlimited",
      "hard": "unlimited"
    },
    "max_user_processes": {
      "soft": 63019,
      "hard": 63019
    },
    "virtual_memory_kbytes": {
      "soft": "unlimited",
      "hard": "unlimited"
    }
  },
  "sharedObjects": [
    "linux-vdso.so.1",
    "/lib/x86_64-linux-gnu/libdl.so.2",
    "/usr/lib/x86_64-linux-gnu/libstdc++.so.6",
    "/lib/x86_64-linux-gnu/libm.so.6",
    "/lib/x86_64-linux-gnu/libgcc_s.so.1",
    "/lib/x86_64-linux-gnu/libpthread.so.0",
    "/lib/x86_64-linux-gnu/libc.so.6",
    "/lib64/ld-linux-x86-64.so.2"
  ]
}